<?xml version="1.0" encoding="UTF-8"?>
<svg width="33px" height="30px" viewBox="0 0 33 30" version="1.1" xmlns="http://www.w3.org/2000/svg" xmlns:xlink="http://www.w3.org/1999/xlink">
    <!-- Generator: sketchtool 50.2 (55047) - http://www.bohemiancoding.com/sketch -->
    <title>52CAA719-ED8C-4393-85D6-38BD8D57FE85</title>
    <desc>Created with sketchtool.</desc>
    <defs></defs>
    <g id="UI" stroke="none" stroke-width="1" fill="none" fill-rule="evenodd">
        <g id="homepage-2" transform="translate(-748.000000, -1750.000000)" stroke="#7C8A97">
            <g id="Our-technology" transform="translate(-1.000000, 1359.000000)">
                <g id="icon-reason" transform="translate(749.000000, 391.000000)">
                    <g id="Group" transform="translate(7.260000, 4.620000)" stroke-linecap="round" stroke-linejoin="round">
                        <path d="M3.9402e-05,5.939208 C3.9402e-05,2.65914 2.6591794,0 5.9400394,0 L8.9100394,0 C12.7369834,0 15.8400394,3.103056 15.8400394,6.93 L15.8400394,8.910792 C15.8400394,10.0044252 14.9536726,10.891584 13.8592474,10.891584 L12.8700196,10.8908098 L12.8700196,13.8600178 L11.8800196,13.8600178 L10.8907918,10.8916018 L8.9099998,10.8908296 C7.2695302,10.8908296 5.9399998,9.56050722 5.9399998,7.92082962 L1.9799998,7.92082962 C0.886366602,7.92082962 0,7.03369062 0,5.94082962 L3.9402e-05,5.939208 Z" id="Stroke-1"></path>
                        <path d="M5.94,8.25 C5.94,6.6103224 7.2695304,5.28 8.91,5.28 L10.890792,5.28 L8.91,5.28 C7.2695304,5.2807722 5.94,6.6103224 5.94,8.25 Z" id="Stroke-2"></path>
                    </g>
                    <g id="computer">
                        <path d="M0.5,22.6 L32.5,22.6 L32.5,2 C32.5,1.17157288 31.8284271,0.5 31,0.5 L2,0.5 C1.17157288,0.5 0.5,1.17157288 0.5,2 L0.5,22.6 Z" id="Rectangle-10"></path>
                        <rect id="Rectangle" x="13.7" y="22.94" width="5.6" height="4.28"></rect>
                        <path d="M11.778727,29.2 L21.221273,29.2 C20.9961047,28.2592966 20.1497171,27.56 19.14,27.56 L13.86,27.56 C12.8502829,27.56 12.0038953,28.2592966 11.778727,29.2 Z" id="Rectangle-11"></path>
                    </g>
                </g>
            </g>
        </g>
    </g>
</svg>