<?xml version="1.0" encoding="UTF-8"?>
<svg width="32px" height="29px" viewBox="0 0 32 29" version="1.1" xmlns="http://www.w3.org/2000/svg" xmlns:xlink="http://www.w3.org/1999/xlink">
    <!-- Generator: sketchtool 50.2 (55047) - http://www.bohemiancoding.com/sketch -->
    <title>1D7F66F9-80D9-4B1C-9868-9D6CF2D00C20</title>
    <desc>Created with sketchtool.</desc>
    <defs></defs>
    <g id="UI" stroke="none" stroke-width="1" fill="none" fill-rule="evenodd">
        <g id="technology-2" transform="translate(-561.000000, -1807.000000)" fill="#7C8A97">
            <g id="reason" transform="translate(0.000000, 1605.000000)">
                <g id="icon-health" transform="translate(561.000000, 202.000000)">
                    <path d="M20.5204,14.0408 L16.3596,14.0408 L16.3596,9.88 C16.3596,9.639376 16.200224,9.48 15.9596,9.48 C15.718976,9.48 15.5596,9.639376 15.5596,9.88 L15.5596,14.0004 L11.4408,14.0004 C11.200176,14.0004 11.0408,14.159776 11.0408,14.4004 C11.0408,14.641024 11.200176,14.8004 11.4408,14.8004 L15.5612,14.8004 L15.5612,18.9208 C15.5612,19.161424 15.720576,19.3208 15.9612,19.3208 C16.201824,19.3208 16.3612,19.161424 16.3612,18.9208 L16.359636,14.8412 L20.480036,14.8412 C20.72066,14.8412 20.880036,14.681824 20.880036,14.4412 C20.880036,14.200576 20.72066,14.0412 20.52066,14.0412 L20.5204,14.0408 Z" id="Fill-1"></path>
                    <path d="M26.0408,0.8408 C22.32048,-0.63888 18.4408,0.761112 16,4.40016 C13.55936,0.75952 9.6796,-0.64064 5.9592,0.8408 C2.3592,2.28144 -0.9204004,6.6 0.4,12.6408 C1.6,18.0408 5.7592,22.0816 9,24.5204 C12.52032,27.16104 15.6796,28.47976 15.8408,28.5612 C15.881424,28.601824 15.961112,28.601824 16.000176,28.601824 C16.0408,28.601824 16.120488,28.601824 16.159552,28.5612 C16.279864,28.520576 19.479872,27.1612 23.000352,24.5204 C26.280032,22.07976 30.400352,18.0408 31.600352,12.6408 C32.920672,6.6 29.640992,2.28 26.041152,0.8408 L26.0408,0.8408 Z M30.8,12.48 C28.72032,21.7596 17.4408,27.08 16,27.7596 C14.55936,27.11896 3.2796,21.8004 1.2,12.48 C-0.0406412,6.88 2.95936,2.88 6.2408,1.6004 C7.0408,1.280088 7.96112,1.08008 8.92048,1.08008 C11.2408,1.08008 13.76128,2.2004 15.64088,5.40048 C15.720568,5.520792 15.84088,5.60048 16.000256,5.60048 C16.159632,5.60048 16.279944,5.520792 16.359632,5.40048 C19.039312,0.92088 22.959632,0.52088 25.759632,1.60048 C29.040872,2.88016 32.040832,6.88008 30.800432,12.48008 L30.8,12.48 Z" id="Fill-2"></path>
                </g>
            </g>
        </g>
    </g>
</svg>