<?xml version="1.0" encoding="UTF-8"?>
<svg width="65px" height="45px" viewBox="0 0 65 45" version="1.1" xmlns="http://www.w3.org/2000/svg" xmlns:xlink="http://www.w3.org/1999/xlink">
    <!-- Generator: sketchtool 50.2 (55047) - http://www.bohemiancoding.com/sketch -->
    <title>8F5462FC-9C9E-4A79-9F04-C9BACE9C9C65</title>
    <desc>Created with sketchtool.</desc>
    <defs></defs>
    <g id="UI" stroke="none" stroke-width="1" fill="none" fill-rule="evenodd">
        <g id="technology-2" transform="translate(-209.000000, -4597.000000)" fill="#7C8A97">
            <g id="autonomusflight+" transform="translate(0.000000, 4203.000000)">
                <g id="Group-3" transform="translate(202.000000, 199.000000)">
                    <path d="M33.4132754,198.912154 L33.4132754,207.716984 L67.0985111,207.716984 L69.7492574,203.300816 C70.0266899,202.83675 70.626964,202.687945 71.0909979,202.965378 C71.5525396,203.24281 71.7038559,203.845603 71.4264363,204.307119 L68.4906969,209.199975 C68.3141483,209.492535 67.9963687,209.674132 67.6508258,209.674132 L33.413553,209.674132 L33.413553,215.548129 C33.413553,218.241747 31.2218691,220.435949 28.5257331,220.435949 L11.8897256,220.435949 C11.8039758,220.435949 11.7182261,220.42334 11.6375189,220.403163 C10.207517,224.352778 12.3361202,227.283288 16.7851513,227.283288 L32.4294291,227.283288 C37.2894858,227.283288 41.2394238,223.338709 41.2394238,218.478458 L41.2394238,214.56416 C41.2394238,214.02443 41.6757461,213.585602 42.2179821,213.585602 L67.6510711,213.585602 C67.9966011,213.585602 68.3143549,213.767193 68.4909422,214.062278 L71.4266817,218.952616 C71.7041142,219.416682 71.552785,220.016918 71.0912433,220.294357 C70.6271771,220.574307 70.0269417,220.422984 69.7495027,219.958918 L67.0987564,215.542751 L43.196521,215.542751 L43.196521,218.47849 C43.196521,224.418022 38.3717173,229.240307 32.4295389,229.240307 L16.7852611,229.240307 C10.6716594,229.240307 7.61498815,224.511384 10.1246585,218.93497 L10.8964127,217.217393 C13.2747562,211.936109 19.7916355,207.716545 25.5877016,207.716545 L31.4565978,207.716545 L31.4565978,198.911715 L7.978558,198.911715 C7.43882745,198.911715 7,198.475393 7,197.933157 C7,197.393426 7.43884688,196.957117 7.978558,196.957117 L31.4565978,196.957117 L31.4565978,195.978558 C31.4565978,195.436309 31.8954447,195 32.4351561,195 C32.9748869,195 33.4137144,195.436322 33.4137144,195.978558 L33.4137144,196.957117 L56.891753,196.957117 C57.4314838,196.957117 57.8703112,197.393439 57.8703112,197.933157 C57.8703112,198.475406 57.4314644,198.911715 56.891753,198.911715 L33.4132754,198.912154 Z M31.4561588,209.673971 L25.5872625,209.673971 C20.5632735,209.673971 14.7421559,213.439445 12.67928,218.022321 L12.4749875,218.47882 L28.5253844,218.47882 C30.1420459,218.47882 31.4560878,217.16226 31.4560878,215.548116 L31.4561588,209.673971 Z M21.4433045,238.042864 L33.6404176,238.042864 L31.5949751,234.635536 C31.3175426,234.17147 31.4688718,233.571235 31.9304135,233.291278 C32.3944797,233.013845 32.9947151,233.165175 33.272154,233.626716 L35.9229003,238.042883 L42.2180596,238.042883 C42.7577904,238.042883 43.1966179,238.48173 43.1966179,239.021442 C43.1966179,239.563691 42.757771,240 42.2180596,240 L35.388296,240 L35.352985,240 L19.7338879,240 L19.6985833,240 L12.8662346,240 C11.78676,240 10.9141541,239.12733 10.9141541,238.042883 L10.9141541,237.066843 C10.9141541,236.524594 11.3504764,236.088285 11.8901943,236.088285 C12.4324432,236.088285 12.8687526,236.524607 12.8687526,237.066843 L12.8687526,238.042883 L19.1639145,238.042883 L21.8121427,233.626716 C22.0920933,233.165175 22.6923674,233.013845 23.1564013,233.291278 C23.617943,233.571228 23.7692722,234.171503 23.4918397,234.635536 L21.4433045,238.042864 Z" id="icon-helicopter" transform="translate(39.282814, 217.500000) scale(-1, 1) translate(-39.282814, -217.500000) "></path>
                </g>
            </g>
        </g>
    </g>
</svg>