<?xml version="1.0" encoding="UTF-8"?>
<svg width="32px" height="32px" viewBox="0 0 32 32" version="1.1" xmlns="http://www.w3.org/2000/svg" xmlns:xlink="http://www.w3.org/1999/xlink">
    <!-- Generator: sketchtool 50.2 (55047) - http://www.bohemiancoding.com/sketch -->
    <title>C549496C-7306-4AF7-8245-57DF3325C59F</title>
    <desc>Created with sketchtool.</desc>
    <defs></defs>
    <g id="UI" stroke="none" stroke-width="1" fill="none" fill-rule="evenodd">
        <g id="technology-2" transform="translate(-1109.000000, -967.000000)" fill="#7C8A97">
            <g id="sense" transform="translate(209.000000, 906.000000)">
                <g id="icon-selection" transform="translate(900.000000, 61.000000)">
                    <path d="M0.5,20 C0.791536024,20 1,19.7582845 1,19.5181442 L1,11.4818558 C1,11.2008992 0.749182789,11 0.5,11 C0.249182789,11 0,11.2009072 0,11.4818558 L0,19.5181442 C0,19.7991008 0.208472315,20 0.5,20 Z" id="Fill-1"></path>
                    <path d="M19.5181442,31 L11.4818558,31 C11.2008992,31 11,31.2508169 11,31.5000006 C11,31.7508175 11.2417155,32 11.4818558,32 L19.5181442,32 C19.7991008,32 20,31.7491831 20,31.5000006 C20,31.2491825 19.7990928,31 19.5181442,31 Z" id="Fill-2"></path>
                    <path d="M19.5181442,0 L11.4818558,0 C11.2008992,0 11,0.250817211 11,0.5 C11,0.750817211 11.2417155,1 11.4818558,1 L19.5181442,1 C19.7991008,1 20,0.749182789 20,0.5 C20,0.249182789 19.7990928,0 19.5181442,0 Z" id="Fill-3"></path>
                    <path d="M27.5,0 L23.4818558,0 C23.2008992,0 23,0.24171548 23,0.481855847 C23,0.723571327 23.2417155,0.963711694 23.4818558,0.963711694 L27.5,0.963711694 C29.4290306,0.963711694 31.0362883,2.53014501 31.0362883,4.5 L31.0362883,8.51814415 C31.0362883,8.79910083 31.2780038,9 31.5181442,9 C31.7598596,9 32,8.75828452 32,8.51814415 L32,4.5 C32,2.00907208 29.9909279,8.03628831e-05 27.5000804,8.03628831e-05 L27.5,0 Z" id="Fill-4"></path>
                    <path d="M31.5182202,23 C31.237261,23 31.0363601,23.2417154 31.0363601,23.4818558 L31.0363601,27.4999994 C31.0363601,29.4290298 29.4699128,31.0362872 27.5000402,31.0362872 L23.4818601,31.0362872 C23.200901,31.0362872 23,31.2780027 23,31.5181442 C23,31.7598597 23.2417176,32 23.4818601,32 L27.5000402,32 C29.9909903,32 32,29.990927 32,27.5000798 L32,23.4819361 C32,23.2009795 31.799091,23.0000804 31.5181399,23.0000804 L31.5182202,23 Z" id="Fill-5"></path>
                    <path d="M31.5,11 C31.208464,11 31,11.2417155 31,11.4818558 L31,19.5181442 C31,19.7991008 31.2508172,20 31.5,20 C31.7508172,20 32,19.7582845 32,19.5181442 L32,11.4818558 C32,11.2008992 31.7915277,11 31.5,11 Z" id="Fill-6"></path>
                    <path d="M8.51822021,31.036359 L4.50004018,31.036359 C2.57099231,31.036359 0.963720299,29.4699119 0.963720299,27.5000396 L0.963720299,23.4818601 C0.963720299,23.2009009 0.722002661,23 0.481860149,23 C0.240142511,23 0,23.200909 0,23.4818601 L0,27.5000396 C0,29.9909894 2.00909002,32 4.49995982,32 L8.51813985,32 C8.79909903,32 9,31.7582824 9,31.5181399 C9,31.2764211 8.799091,31.0362786 8.51813985,31.0362786 L8.51822021,31.036359 Z" id="Fill-7"></path>
                    <path d="M8.51806379,8.03628831e-05 L4.49991964,8.03628831e-05 C2.00899171,8.03628831e-05 0,2.00915244 0,4.5 L0,8.51814415 C0,8.79910083 0.24171548,9 0.481855847,9 C0.723571327,9 0.963711694,8.75828452 0.963711694,8.51814415 L0.963711694,4.5 C0.963711694,2.57096935 2.53014501,0.963711694 4.5,0.963711694 L8.51814415,0.963711694 C8.79910083,0.963711694 9,0.721996214 9,0.481855847 C9,0.240140367 8.79909279,0 8.51814415,0 L8.51806379,8.03628831e-05 Z" id="Fill-8"></path>
                </g>
            </g>
        </g>
    </g>
</svg>