<?xml version="1.0" encoding="UTF-8"?>
<svg width="40px" height="32px" viewBox="0 0 40 32" version="1.1" xmlns="http://www.w3.org/2000/svg" xmlns:xlink="http://www.w3.org/1999/xlink">
    <!-- Generator: sketchtool 50.2 (55047) - http://www.bohemiancoding.com/sketch -->
    <title>64AF048A-F9DF-45B1-9EB2-6662DEE3C780</title>
    <desc>Created with sketchtool.</desc>
    <defs></defs>
    <g id="UI" stroke="none" stroke-width="1" fill="none" fill-rule="evenodd">
        <g id="technology-2-storyboard" transform="translate(-370.000000, -1798.000000)">
            <g id="icon-api" transform="translate(371.000000, 1799.000000)">
                <polygon id="Fill-1" stroke="#7C8A97" points="37.7678669 8.06060606 0 8.06060606 0 30.0465905 37.7696961 30.0465905"></polygon>
                <polygon id="Fill-2" stroke="#7C8A97" points="37.7678669 0 0 0 0 5.19920019 37.7696961 5.19920019"></polygon>
                <text id="API" font-family="Gotham-Medium, Gotham" font-size="9" font-weight="400" fill="#7C8A97">
                    <tspan x="9.21212121" y="21.5">API</tspan>
                </text>
            </g>
        </g>
    </g>
</svg>