<?xml version="1.0" encoding="UTF-8"?>
<svg width="31px" height="31px" viewBox="0 0 31 31" version="1.1" xmlns="http://www.w3.org/2000/svg" xmlns:xlink="http://www.w3.org/1999/xlink">
    <!-- Generator: sketchtool 50.2 (55047) - http://www.bohemiancoding.com/sketch -->
    <title>CC36CF59-DAE3-4A83-8951-0199C2CA8DB2</title>
    <desc>Created with sketchtool.</desc>
    <defs></defs>
    <g id="UI" stroke="none" stroke-width="1" fill="none" fill-rule="evenodd">
        <g id="technology-2" transform="translate(-1018.000000, -2380.000000)" fill="#7C8A97">
            <g id="icon-architecture" transform="translate(1018.000000, 2380.000000)">
                <path d="M30.395837,30.7011192 L0.640891304,30.7011192 C0.461883152,30.7011192 0.317096304,30.5563324 0.317096304,30.3773242 L0.317096304,0.622378913 C0.317096304,0.443370761 0.461883152,0.298583913 0.640891304,0.298583913 L30.395837,0.298583913 C30.5748451,0.298583913 30.719632,0.443370761 30.719632,0.622378913 L30.719632,30.3773242 C30.7209495,30.5563324 30.5748451,30.7011192 30.395837,30.7011192 Z M0.966055696,30.0535225 L30.0733729,30.0535225 L30.0720554,0.946207609 L0.966055696,0.946207609 L0.966055696,30.0535225 Z" id="Fill-1"></path>
                <path d="M0.604163043,13.2346413 C0.425154891,13.2346413 0.280368043,13.0898545 0.280368043,12.9108463 C0.280368043,12.7318382 0.425154891,12.5870513 0.604163043,12.5870513 L13.2518261,12.5844197 L13.2518261,5.78093054 C13.2518261,5.60192239 13.3966129,5.45713554 13.5756211,5.45713554 C13.7546292,5.45713554 13.8994161,5.60192239 13.8994161,5.78093054 L13.8994161,12.9082349 C13.8994161,13.087243 13.7546292,13.2320299 13.5756211,13.2320299 L0.604163043,13.2346413 Z" id="Fill-2"></path>
                <path d="M25.8863478,13.2322826 L18.7590435,13.2322826 C18.5800353,13.2322826 18.4352485,13.0874958 18.4352485,12.9084876 L18.4352485,0.62271587 C18.4352485,0.443707717 18.5800353,0.29892087 18.7590435,0.29892087 C18.9380516,0.29892087 19.0828385,0.443707717 19.0828385,0.62271587 L19.0828385,12.5846724 L25.8863276,12.5846724 C26.0653358,12.5846724 26.2101226,12.7294592 26.2101226,12.9084674 C26.2114367,13.0874755 26.0666533,13.2322624 25.8863276,13.2322624 L25.8863478,13.2322826 Z" id="Fill-3"></path>
                <path d="M13.5756413,21.6561957 C13.3966332,21.6561957 13.2518463,21.5114088 13.2518463,21.3324007 L13.2518463,12.9084876 C13.2518463,12.7294795 13.3966332,12.5846926 13.5756413,12.5846926 C13.7546495,12.5846926 13.8994363,12.7294795 13.8994363,12.9084876 L13.8994363,21.3324007 C13.8994363,21.5114088 13.7546495,21.6561957 13.5756413,21.6561957 Z" id="Fill-4"></path>
                <path d="M18.111413,30.7011192 C17.9324049,30.7011192 17.787618,30.5563324 17.787618,30.3773242 L17.787618,20.6830854 C17.787618,20.5040773 17.9324049,20.3592904 18.111413,20.3592904 C18.2904212,20.3592904 18.435208,20.5040773 18.435208,20.6830854 L18.435208,30.3773242 C18.435208,30.5563324 18.2904212,30.7011192 18.111413,30.7011192 Z" id="Fill-5"></path>
                <path d="M8.3908913,22.3034891 L0.640891304,22.3034891 C0.461883152,22.3034891 0.317096304,22.1587023 0.317096304,21.9796941 C0.317096304,21.800686 0.461883152,21.6558991 0.640891304,21.6558991 L8.3908913,21.6558991 C8.56989946,21.6558991 8.7146863,21.800686 8.7146863,21.9796941 C8.7146863,22.1587023 8.56989946,22.3034891 8.3908913,22.3034891 Z" id="Fill-6"></path>
            </g>
        </g>
    </g>
</svg>